96,104,16150,5,0,0:0:0:0:
256,104,16750,1,0,0:0:0:0:
416,104,17350,5,0,0:0:0:0:
96,104,20350,5,0,0:0:0:0:
336,184,21250,1,0,0:0:0:0:
416,104,21550,1,0,0:0:0:0:
176,24,29350,5,0,0:0:0:0:
176,264,29650,1,0,0:0:0:0:
416,264,29950,1,0,0:0:0:0:
416,24,30250,1,0,0:0:0:0:
176,344,31150,1,0,0:0:0:0:
96,344,34450,1,0,0:0:0:0:
256,184,34750,1,0,0:0:0:0:
96,24,44950,5,0,0:0:0:0:
256,24,45250,1,0,0:0:0:0:
416,24,45550,1,0,0:0:0:0:
416,184,45850,1,0,0:0:0:0:
416,344,46150,1,0,0:0:0:0:
256,344,46450,1,0,0:0:0:0:
96,344,46750,1,0,0:0:0:0:
256,104,47650,1,0,0:0:0:0:
176,184,47950,1,0,0:0:0:0:
256,264,48250,1,0,0:0:0:0:
416,184,48550,1,0,0:0:0:0:
256,24,48850,1,0,0:0:0:0:
96,184,49150,5,0,0:0:0:0:
416,24,50950,5,0,0:0:0:0:
176,344,53350,5,0,0:0:0:0:
496,184,57250,1,0,0:0:0:0:
336,184,57550,1,0,0:0:0:0:
416,344,60550,5,0,0:0:0:0:
416,24,60850,1,0,0:0:0:0:
256,184,66550,5,0,0:0:0:0:
256,344,68050,5,0,0:0:0:0:
256,184,70750,5,0,0:0:0:0:
176,184,73750,5,0,0:0:0:0:
256,184,74050,1,0,0:0:0:0:
96,184,77350,5,0,0:0:0:0:
256,184,79750,5,0,0:0:0:0:
256,24,83650,5,0,0:0:0:0:
96,184,83950,1,0,0:0:0:0:
256,184,84250,1,0,0:0:0:0:
416,184,84550,1,0,0:0:0:0:
256,344,84850,1,0,0:0:0:0:
256,104,88150,5,0,0:0:0:0:
336,184,88750,1,0,0:0:0:0:
256,264,89350,1,0,0:0:0:0:
176,184,89950,1,0,0:0:0:0: