408,32,13180,5,2,0:0:0:0:
280,88,13386,5,0,0:0:0:0:
152,32,13591,5,8,0:0:0:0:
24,88,13797,5,0,0:0:0:0:
368,184,14002,5,0,0:0:0:0:
336,248,14105,5,0,0:0:0:0:
280,296,14208,5,0,0:0:0:0:
216,312,14310,5,0,0:0:0:0:
144,304,14413,5,8,0:0:0:0:
240,200,14619,5,0,0:0:0:0:
368,352,14824,5,2,0:0:0:0:
464,248,15029,5,0,0:0:0:0:
496,184,15132,5,0,0:0:0:0:
464,120,15235,5,8,0:0:0:0:
328,120,15440,5,0,0:0:0:0:
184,120,15646,5,0,0:0:0:0:
144,176,15749,5,0,0:0:0:0:
160,312,15954,5,0,0:0:0:0:
200,256,16057,5,8,0:0:0:0:
24,184,16262,5,0,0:0:0:0:
480,152,16468,5,2,0:0:0:0:
304,164,16673,5,0,0:0:0:0:
393,158,16879,5,8,0:0:0:0:
214,172,17084,5,0,0:0:0:0:
8,104,17290,5,0,0:0:0:0:
86,80,17393,5,0,0:0:0:0:
163,58,17495,5,0,0:0:0:0:
240,36,17598,5,0,0:0:0:0:
317,14,17701,5,8,0:0:0:0:
214,172,17906,5,0,0:0:0:0:
8,104,18112,5,2,0:0:0:0:
104,232,18317,5,0,0:0:0:0:
152,296,18420,5,0,0:0:0:0:
200,360,18523,5,8,0:0:0:0:
48,376,18728,5,0,0:0:0:0:
280,200,18934,5,0,0:0:0:0:
216,248,19036,5,0,0:0:0:0:
400,216,19242,5,0,0:0:0:0:
336,264,19344,5,8,0:0:0:0:
512,232,19550,5,0,0:0:0:0:
248,0,19756,5,2,0:0:0:0:
283,70,19858,5,0,0:0:0:0:
342,123,19961,5,0,0:0:0:0:
184,112,20166,5,8,0:0:0:0:
136,48,20269,5,0,0:0:0:0:
112,208,20475,5,0,0:0:0:0:
160,272,20578,5,0,0:0:0:0:
312,320,20783,5,0,0:0:0:0:
304,240,20886,5,0,0:0:0:0:
272,168,20988,5,8,0:0:0:0:
80,288,21194,5,0,0:0:0:0:
496,200,21605,5,0,0:0:0:0:
304,240,21810,5,8,0:0:0:0:
384,224,21913,5,0,0:0:0:0:
512,80,22221,5,0,0:0:0:0:
432,93,22323,5,0,0:0:0:0:
353,107,22426,5,0,0:0:0:0:
274,121,22529,5,0,0:0:0:0:
195,135,22632,5,8,0:0:0:0:
416,338,22838,5,0,0:0:0:0:
333,31,23043,5,2,0:0:0:0:
353,107,23146,5,0,0:0:0:0:
374,184,23249,5,0,0:0:0:0:
304,330,23454,5,8,0:0:0:0:
283,253,23557,5,0,0:0:0:0:
144,170,23762,5,0,0:0:0:0:
165,247,23865,5,0,0:0:0:0:
504,322,24071,5,0,0:0:0:0:
484,246,24174,5,0,0:0:0:0:
463,169,24277,5,8,0:0:0:0:
216,10,24482,5,0,0:0:0:0:
236,86,24585,5,0,0:0:0:0:
256,162,24688,5,2,0:0:0:0:
0,160,24995,5,0,0:0:0:0:
384,160,25303,5,0,0:0:0:0:
128,160,25612,5,0,0:0:0:0:
512,160,25920,5,4,0:0:0:0: