104,96,78934,5,0,0:0:0:0:
296,16,79139,5,0,0:0:0:0:
224,48,79242,5,2,0:0:0:0:
328,224,79447,5,0,0:0:0:0:
370,291,79550,5,0,0:0:0:0:
438,249,79653,5,0,0:0:0:0:
395,181,79756,5,0,0:0:0:0:
224,296,79961,5,0,0:0:0:0:
266,363,80064,5,2,0:0:0:0:
152,184,80269,5,0,0:0:0:0:
110,115,80372,5,0,0:0:0:0:
42,156,80475,5,0,0:0:0:0:
83,225,80577,5,2,0:0:0:0:
136,8,80783,5,0,0:0:0:0:
288,152,80988,5,2,0:0:0:0:
355,174,81091,5,0,0:0:0:0:
401,117,81194,5,0,0:0:0:0:
356,51,81297,5,0,0:0:0:0:
283,79,81399,5,0,0:0:0:0:
320,288,81605,5,0,0:0:0:0:
392,288,81708,5,2,0:0:0:0:
283,79,81913,5,0,0:0:0:0:
216,56,82016,5,0,0:0:0:0:
144,56,82119,5,0,0:0:0:0:
80,80,82221,5,2,0:0:0:0:
176,304,82427,5,0,0:0:0:0:
287,80,82632,5,8,0:0:0:0:
295,148,82735,5,0,0:0:0:0:
282,218,82838,5,0,0:0:0:0:
238,275,82940,5,0,0:0:0:0:
176,304,83043,5,0,0:0:0:0:
176,168,83249,5,0,0:0:0:0:
495,304,83454,5,8,0:0:0:0:
433,275,83557,5,0,0:0:0:0:
389,218,83659,5,0,0:0:0:0:
376,148,83762,5,0,0:0:0:0:
384,80,83865,5,2,0:0:0:0:
256,136,84071,5,0,0:0:0:0:
128,72,84276,5,8,0:0:0:0:
0,136,84482,5,0,0:0:0:0:
356,362,84687,5,0,0:0:0:0:
298,325,84790,5,0,0:0:0:0:
240,288,84892,5,0,0:0:0:0:
181,250,84995,5,0,0:0:0:0:
123,213,85098,5,4,0:0:0:0:
256,8,85509,5,2,0:0:0:0:
360,192,85714,5,0,0:0:0:0:
319,119,85817,5,2,0:0:0:0:
104,288,86023,5,0,0:0:0:0:
143,220,86125,5,0,0:0:0:0:
180,150,86228,5,0,0:0:0:0:
217,80,86331,5,0,0:0:0:0:
440,336,86536,5,0,0:0:0:0:
399,263,86639,5,2,0:0:0:0:
301,375,86845,5,0,0:0:0:0:
260,302,86948,5,0,0:0:0:0:
221,223,87050,5,0,0:0:0:0:
180,150,87153,5,2,0:0:0:0:
389,150,87358,5,0,0:0:0:0:
208,40,87564,5,2,0:0:0:0:
136,32,87666,5,0,0:0:0:0:
72,64,87769,5,0,0:0:0:0:
48,128,87872,5,0,0:0:0:0:
64,200,87975,5,0,0:0:0:0:
280,64,88180,5,0,0:0:0:0:
352,80,88283,5,2,0:0:0:0:
180,150,88488,5,0,0:0:0:0:
224,208,88591,5,0,0:0:0:0:
232,280,88694,5,0,0:0:0:0:
216,352,88797,5,2,0:0:0:0:
112,256,89002,5,0,0:0:0:0:
352,256,89208,5,8,0:0:0:0:
384,192,89310,5,0,0:0:0:0:
416,128,89413,5,0,0:0:0:0:
448,64,89516,5,0,0:0:0:0:
480,0,89619,5,0,0:0:0:0:
280,136,89824,5,0,0:0:0:0:
65,254,90030,5,8,0:0:0:0:
136,254,90132,5,0,0:0:0:0:
208,255,90235,5,0,0:0:0:0:
279,255,90338,5,0,0:0:0:0:
352,256,90441,5,2,0:0:0:0:
280,136,90646,5,0,0:0:0:0:
208,255,90851,5,8,0:0:0:0:
136,136,91057,5,0,0:0:0:0:
65,254,91262,5,0,0:0:0:0:
97,315,91365,5,0,0:0:0:0:
136,376,91468,5,0,0:0:0:0:
176,315,91571,5,0,0:0:0:0:
208,255,91673,5,4,0:0:0:0: