Duration: 1200
Direction: left
Color: red
0,84,50838,6,0,L,1,25
0,84,51061,2,0,L,1,20
0,84,51173,2,0,L,1,20
0,84,51285,2,0,L,1,25
0,84,51508,2,0,L,1,25
0,84,51731,2,0,L,1,25
0,84,51842,2,0,L,1,25
0,84,51953,2,0,L,1,25
0,84,52063,2,0,L,1,25
0,84,52174,2,0,L,1,25
0,84,52394,2,0,L,1,25
0,84,52613,2,0,L,1,25
0,84,52722,2,0,L,1,25
0,84,52940,2,0,L,1,25
0,84,53049,2,0,L,1,25
0,84,53266,2,0,L,1,25
0,84,53482,2,0,L,1,25
0,84,53699,2,0,L,1,25
0,84,53915,2,0,L,1,25
0,84,54132,2,0,L,1,25