1750.87833737864,600,4,2,0,70,1,0
13075,-100,4,2,0,5,0,0
13263,-100,4,2,0,70,0,0
18550,600,4,2,0,70,1,0
20350,600,4,2,0,70,1,0
22150,600,4,2,0,70,1,0
31750,600,4,2,0,70,1,0
33550,600,4,2,0,70,1,0
35350,600,4,2,0,70,1,0
54550,600,4,2,0,70,1,0
56350,600,4,2,0,70,1,0
58150,600,4,2,0,70,1,0
66550,600,4,2,0,70,1,0